﻿Series Name,Series Code,Country Name,Country Code,1990 [YR1990],2000 [YR2000],2011 [YR2011],2012 [YR2012],2013 [YR2013],2014 [YR2014],2015 [YR2015],2016 [YR2016],2017 [YR2017],2018 [YR2018],2019 [YR2019],2020 [YR2020]
Exports of goods and services (% of GDP),NE.EXP.GNFS.ZS,Afghanistan,AFG,..,..,..,..,..,..,..,..,..,..,..,..
Exports of goods and services (% of GDP),NE.EXP.GNFS.ZS,Albania,ALB,15.4050638293415,20.1153637600108,29.2415007417055,28.9374866944749,28.9163537436855,28.2129788388934,27.267393304466,28.9778642158267,31.5698206428859,31.5915741366206,31.5402162770969,23.249921309893
Exports of goods and services (% of GDP),NE.EXP.GNFS.ZS,Algeria,DZA,23.4436850828471,42.0697279237388,38.7881212988477,36.8905478100074,33.2098978857357,30.4876573850505,23.1717927101007,20.8724853293973,22.6322035155381,25.7868308209835,22.794358806166,17.0905671583236
Exports of goods and services (% of GDP),NE.EXP.GNFS.ZS,American Samoa,ASM,..,..,58.7719298245614,75.46875,71.7868338557994,66.7185069984448,63.5958395245171,63.9344262295082,59.1503267973856,68.1747269890796,63.3228840125392,..
Exports of goods and services (% of GDP),NE.EXP.GNFS.ZS,Andorra,AND,..,..,..,..,..,..,..,..,..,..,..,..
Exports of goods and services (% of GDP),NE.EXP.GNFS.ZS,Angola,AGO,..,89.6858311851382,60.6699484390186,55.9401314050624,50.7470843910637,44.6950312503076,29.7545994933756,28.124484560559,29.0041000519815,40.8362898865574,39.3438256954007,35.2845259757963
Exports of goods and services (% of GDP),NE.EXP.GNFS.ZS,Antigua and Barbuda,ATG,..,98.6016493366798,82.4971838964455,79.0157599402443,80.5916154374261,82.2012399682303,76.0362087740055,72.6104599899969,67.7413017325691,64.5486740684989,71.9753208477697,42.3214467022001
Exports of goods and services (% of GDP),NE.EXP.GNFS.ZS,Argentina,ARG,10.3595365925264,10.9863752325576,18.4492091453155,16.2378594620246,14.6171733884386,14.4054785893756,10.7056520504538,12.5270951690009,11.3202833596733,14.6198312492533,17.4397039105268,16.6137220454622
Exports of goods and services (% of GDP),NE.EXP.GNFS.ZS,Armenia,ARM,35.0029815146094,22.1614188089398,22.5231882640131,27.5618114828439,28.3534851384818,28.5603816555446,29.7253912120334,33.7442798606396,38.2160456550464,39.3928940286073,41.1889680894783,30.7076519248757
Exports of goods and services (% of GDP),NE.EXP.GNFS.ZS,Aruba,ABW,..,74.4003244390901,67.8133216476775,65.2413489089707,76.5483116318725,78.2755038498016,72.8529594472398,71.8203884851331,72.5486645884887,73.7993971442039,..,..
Exports of goods and services (% of GDP),NE.EXP.GNFS.ZS,Australia,AUS,15.1463378398455,19.4346594389549,21.4364170540906,21.4808284059974,19.9561676149363,21.0394549992806,19.984845509759,19.2510570754507,21.2057506620343,21.8219046176483,24.1109654423664,23.9152267660839
Exports of goods and services (% of GDP),NE.EXP.GNFS.ZS,Austria,AUT,35.6974143906097,43.3462739519887,53.9486708516394,53.9736761965302,53.4412932967224,53.3865790462424,53.0890605587958,52.4063936498056,54.0537009052279,55.690950654202,55.5756031914258,52.628871881371
Exports of goods and services (% of GDP),NE.EXP.GNFS.ZS,Azerbaijan,AZE,43.8608458390177,40.1708314787732,56.4269805307016,52.9746801915106,48.4158330755216,43.2735566584935,37.7947774917249,46.4276493913136,48.547864732761,54.0922938620586,49.0506275016423,35.6953123058529
Exports of goods and services (% of GDP),NE.EXP.GNFS.ZS,"Bahamas, The",BHS,54.160770688566,38.0475628585261,37.4352685331837,38.1272328716011,39.6379773664888,38.8044926023255,37.9179902312395,36.5871651926059,36.3374350516784,39.409926202379,39.2435266739329,..
Exports of goods and services (% of GDP),NE.EXP.GNFS.ZS,Bahrain,BHR,115.555828722334,79.1806670285974,99.4186691312384,102.14552480855,104.804803332124,96.0507512478313,83.1072099110581,74.2008275338583,75.7796814248463,79.5672068340522,76.8414023649251,..
Exports of goods and services (% of GDP),NE.EXP.GNFS.ZS,Bangladesh,BGD,5.90831648660892,12.3442012279919,19.9220749554939,20.1615888634893,19.5378741103687,18.9896599950107,17.3366737865485,16.6497149603036,15.0361076278794,14.800958178109,15.3232474432667,12.1811153367093
Exports of goods and services (% of GDP),NE.EXP.GNFS.ZS,Barbados,BRB,43.1307141092167,43.2358228468704,44.4696747181965,42.6068503253796,41.9805933290571,40.3215990631321,41.443178154825,43.1323447204969,42.1915940136601,41.2875985451686,42.0081205605682,..
Exports of goods and services (% of GDP),NE.EXP.GNFS.ZS,Belarus,BLR,45.9584295612009,69.2108213448948,78.4653615193087,78.7769072783938,58.3335781066769,54.941004057247,58.0107665670743,62.5093471231924,66.7896002012327,70.4550452625374,65.0945839929757,61.9005346720542
Exports of goods and services (% of GDP),NE.EXP.GNFS.ZS,Belgium,BEL,61.6136909555393,72.5473951580567,80.6973629124622,80.4044905064987,79.3243484015476,79.801009073623,77.8052821516798,79.4296154739536,83.1824102499921,82.9955724752759,81.8125823460208,80.5786821089466
Exports of goods and services (% of GDP),NE.EXP.GNFS.ZS,Belize,BLZ,48.9676782443751,52.9722231398376,62.6191268297466,64.4529024537621,65.3600559055156,62.1478687869106,58.8871705621347,52.1849069532762,54.3275947907255,56.3560937617646,51.0192478802548,55.0187339159972
Exports of goods and services (% of GDP),NE.EXP.GNFS.ZS,Benin,BEN,19.181303010653,20.6053025489554,20.8496515031216,23.8967368670133,27.570565319312,31.4308411236325,24.7204512110389,27.6067880711982,27.2055947818832,27.2960887856824,29.6305271935478,19.8724704276524
Exports of goods and services (% of GDP),NE.EXP.GNFS.ZS,Bermuda,BMU,..,..,52.5392419809555,50.5125436879565,51.6131910947459,51.1612432078139,49.9708394613543,49.3300565760921,48.5381492501872,51.269813431808,50.238832577755,..
Exports of goods and services (% of GDP),NE.EXP.GNFS.ZS,Bhutan,BTN,27.9616719306104,30.3942102191196,42.2049152810839,39.6473523128011,41.4302253684447,37.4519506597056,34.4356493984662,29.6169744797177,30.0831893767679,30.8177060148869,34.0075966646594,..
Exports of goods and services (% of GDP),NE.EXP.GNFS.ZS,Bolivia,BOL,22.7769800123498,18.274745971826,44.0917018533308,47.1661966249317,44.0924795250944,43.2930879909317,30.8682960291245,24.4880055394464,24.9041443675799,25.9887950588635,24.9672622840166,..
Exports of goods and services (% of GDP),NE.EXP.GNFS.ZS,Bosnia and Herzegovina,BIH,..,28.6908426725982,32.0359729547134,32.3505427165995,33.74304868703,33.989120832086,35.5323439523392,36.3417664121004,40.8725303802365,42.5185183014619,40.4756867058676,34.3160365592666
Exports of goods and services (% of GDP),NE.EXP.GNFS.ZS,Botswana,BWA,55.0554070628939,51.8318100701299,49.9505346060796,49.2507437982269,61.5226396573676,58.4667819273555,49.8155660133136,52.5610805905699,39.6701142241259,40.337706783199,33.7905759285941,29.663766209772
Exports of goods and services (% of GDP),NE.EXP.GNFS.ZS,Brazil,BRA,8.19999001540814,10.1880480043795,11.5825153248769,11.8775598368351,11.7422306432624,11.0119428207843,12.9001914177405,12.4666790443888,12.5189678685484,14.6349994952986,14.1053621286953,16.870854838818
Exports of goods and services (% of GDP),NE.EXP.GNFS.ZS,British Virgin Islands,VGB,..,..,..,..,..,..,..,..,..,..,..,..
Exports of goods and services (% of GDP),NE.EXP.GNFS.ZS,Brunei Darussalam,BRN,61.8084939664629,67.3543319201318,69.5060721795477,70.1612686589168,68.0418746411061,68.1770804483096,52.2105973675329,49.5769062738125,49.5732416988601,51.93227637834,57.9460404557289,57.3072763660453
Exports of goods and services (% of GDP),NE.EXP.GNFS.ZS,Bulgaria,BGR,33.1191920794173,36.2188580437982,59.1021818175781,60.6526494302123,64.8078326053919,64.8052586232989,63.9695836998374,64.044977540873,67.2791413488059,65.818725062445,64.1916337048022,56.1365256810026
Exports of goods and services (% of GDP),NE.EXP.GNFS.ZS,Burkina Faso,BFA,10.9666914119517,8.8447174852677,26.1955005196271,26.5980854179657,27.0769854530325,26.932004154154,26.1076455357024,25.915964804251,26.4523856350501,28.1293237626508,25.3690571279328,..
Exports of goods and services (% of GDP),NE.EXP.GNFS.ZS,Burundi,BDI,7.87299229412311,6.3189705942566,8.80000028373483,9.70000089131591,9.1,7.60341878217892,5.73296859108573,6.65258895007475,7.44470259985838,9.40103814120826,9.13119156890157,4.98420165847728
Exports of goods and services (% of GDP),NE.EXP.GNFS.ZS,Cabo Verde,CPV,17.131969468504,27.0072185431265,35.5192397447338,40.4318042627331,40.4924428420234,40.3611396874873,44.9074423095252,44.2296890030632,45.9228129647968,49.2310640324363,50.6492920155385,24.8509820217494
Exports of goods and services (% of GDP),NE.EXP.GNFS.ZS,Cambodia,KHM,..,49.8462352299423,54.0807559141426,57.8897645347882,62.3879357988635,62.6034741723668,61.7184237585212,61.2815249295044,60.6819578071968,61.5957275117508,61.0912965228103,62.4454107939222
Exports of goods and services (% of GDP),NE.EXP.GNFS.ZS,Cameroon,CMR,20.1829143997954,25.9082094134603,25.9320736431239,26.1182006061942,25.5677642842125,24.9380741891878,22.2596662186221,19.2393495360364,18.5839164717789,19.3136881858603,20.2146871485153,15.4473781872962
Exports of goods and services (% of GDP),NE.EXP.GNFS.ZS,Canada,CAN,25.1648997037505,44.209235821106,30.6783919173107,30.3530255225878,30.3319386683867,31.7365758733408,31.8499609634443,31.5025724093362,31.4544101509781,32.3453455768459,31.9165694383376,28.955850705586
Exports of goods and services (% of GDP),NE.EXP.GNFS.ZS,Cayman Islands,CYM,..,..,..,..,..,..,..,..,..,..,..,..
Exports of goods and services (% of GDP),NE.EXP.GNFS.ZS,Central African Republic,CAF,17.0674688659163,20.3722135905975,13.127820098599,11.5501330018626,14.9729547921906,16.6757875879937,17.0676606236635,14.8218796578137,17.2597737600181,18.883624410786,16.4131499973129,15.8276200017463
Exports of goods and services (% of GDP),NE.EXP.GNFS.ZS,Chad,TCD,13.4802082509051,16.8900964319303,38.8772569320241,38.4680542162362,33.565591667753,34.1613628875217,30.0017608897127,26.2950367647059,33.8729624845644,36.1906824485852,36.7422534363826,27.5960340544592
Exports of goods and services (% of GDP),NE.EXP.GNFS.ZS,Channel Islands,CHI,..,..,..,..,..,..,..,..,..,..,..,..
Exports of goods and services (% of GDP),NE.EXP.GNFS.ZS,Chile,CHL,32.4945768184419,30.5317001278369,37.7619574718629,34.1218587192481,32.1994733836984,33.1107497213876,29.3763486014672,28.1486278848655,28.436847234482,28.5071835463458,28.0231115884095,31.5448682321507
Exports of goods and services (% of GDP),NE.EXP.GNFS.ZS,China,CHN,13.6147101696208,20.8934448167644,26.5681893451605,25.4925222245396,24.599254436897,23.5100609074235,21.3540798828848,19.5843800536482,19.6922769882201,19.1121035364139,18.4963930786875,18.4969112496804
Exports of goods and services (% of GDP),NE.EXP.GNFS.ZS,Colombia,COL,18.8626690286416,15.915139715438,19.2765050733171,18.8112052836655,18.0864397214369,16.6347491096509,15.6502115094968,14.7171392781975,15.1452897484005,15.8997196775431,15.852321935617,13.6821330516426
Exports of goods and services (% of GDP),NE.EXP.GNFS.ZS,Comoros,COM,8.83645379157049,8.83631405886599,9.95641544707353,8.94586923883759,9.04838721379907,9.67647217726497,10.1361983069761,10.6728955768962,11.9013164484663,13.2479764053137,12.8095669291611,..
Exports of goods and services (% of GDP),NE.EXP.GNFS.ZS,"Congo, Dem. Rep.",COD,..,11.4496120313427,39.515616667397,30.8030090180745,36.4458613092305,36.8321888510463,27.7255678009959,23.9564422024927,35.250522178686,34.3375649998638,30.105251625348,31.8791226333314
Exports of goods and services (% of GDP),NE.EXP.GNFS.ZS,"Congo, Rep.",COG,51.7773595800525,80.297147219193,73.6117327393895,58.0820278199554,52.9343405840282,53.1526619326199,42.7281670012992,45.2540917622158,57.9660116857914,71.17168343378,74.122347674947,58.009907056249
Exports of goods and services (% of GDP),NE.EXP.GNFS.ZS,Costa Rica,CRI,34.1902683361643,42.9303221614604,32.4724708770444,31.6513173343637,30.5916493612524,31.3629152835975,29.9956578647983,31.2600963003845,32.7626831479863,33.6454786605631,33.8492846017184,30.9575976968177
Exports of goods and services (% of GDP),NE.EXP.GNFS.ZS,Cote d'Ivoire,CIV,31.6898746701998,40.7810291279491,53.819957201153,48.9288579039296,41.5310506916494,39.2746510609958,27.3556079398512,24.5950675126128,24.9201218761069,22.6406826881759,23.7762775609114,..
Exports of goods and services (% of GDP),NE.EXP.GNFS.ZS,Croatia,HRV,..,35.3063686899188,38.7551172282805,39.4756395564284,40.3318687933055,43.2929448634473,46.3784409244986,47.623822027718,49.8794212985282,50.201149058227,51.9610734555104,41.6628883856594
Exports of goods and services (% of GDP),NE.EXP.GNFS.ZS,Cuba,CUB,30.2390452142262,14.1300293796253,25.103638208436,25.5109993027167,24.1004303416809,22.0839119222377,17.1473494542825,14.9830360074423,14.5408927114847,14.4977511244378,..,..
Exports of goods and services (% of GDP),NE.EXP.GNFS.ZS,Curacao,CUW,..,..,71.0205297131383,75.6852063514267,68.9623592066569,72.2413759801192,..,..,..,..,..,..
Exports of goods and services (% of GDP),NE.EXP.GNFS.ZS,Cyprus,CYP,51.5005647205938,69.9628437276103,53.4951590496264,55.3122593814023,61.3603125807344,66.0271468519424,70.1016983991073,70.539258104086,73.4978658415058,75.229790437392,71.8741867456365,67.6522381685836
Exports of goods and services (% of GDP),NE.EXP.GNFS.ZS,Czech Republic,CZE,32.9226235150214,48.0909898172434,70.8218671927368,75.6461865650325,76.0583816157677,81.9542745743788,80.5587781149995,79.1070766309635,79.0271394981121,76.9591647541946,73.8944533212857,70.9876316658715
Exports of goods and services (% of GDP),NE.EXP.GNFS.ZS,Denmark,DNK,36.4231554732849,44.8472655641397,53.8201489280677,54.6304940173438,54.8288189867113,54.6131394364014,55.418174402012,53.4259805224841,55.0773767829077,56.5598044910739,58.9993349662817,54.8815410876214
Exports of goods and services (% of GDP),NE.EXP.GNFS.ZS,Djibouti,DJI,..,..,..,..,156.538300905396,158.374224797343,141.458382570692,100.619882986994,147.828279594693,149.178492905046,152.566180003859,153.443249997671
Exports of goods and services (% of GDP),NE.EXP.GNFS.ZS,Dominica,DMA,45.0373257823705,43.3355176205338,39.2573312536499,33.9635113817359,35.0642782815519,34.2155550492681,47.6339906437715,46.1794037870705,42.3191313517057,29.5546206062235,38.2531003454855,38.2531003454855
Exports of goods and services (% of GDP),NE.EXP.GNFS.ZS,Dominican Republic,DOM,30.610707909044,35.4978251417642,24.186975308385,24.583177865511,25.167158727,25.1513905580691,23.7615822994204,23.909379521893,23.6821453426385,23.5514313052003,23.0692820412923,18.2956971595932
Exports of goods and services (% of GDP),NE.EXP.GNFS.ZS,Ecuador,ECU,22.7643720219304,32.1275352850362,31.121199802252,30.164809271004,28.6382882966079,28.0518541458062,21.2582213779601,19.5047912651498,20.8328178926217,22.6046839884209,23.0483673045907,22.5325811136162
Exports of goods and services (% of GDP),NE.EXP.GNFS.ZS,"Egypt, Arab Rep.",EGY,20.3549060542798,16.2011173184358,20.5674276128656,16.3969666208873,17.0178456245969,14.2441314553991,13.1838454928598,10.3454639403558,15.8184438040346,18.9119754811376,17.5006106612052,13.1838487972509
Exports of goods and services (% of GDP),NE.EXP.GNFS.ZS,El Salvador,SLV,18.4969874192393,26.8272702258496,28.9817632700792,28.5710611774443,29.7248825313299,29.5528883136979,29.4861730232304,28.4585491638981,29.0297927875993,28.9343737810256,29.6758407921281,25.5304658683568
Exports of goods and services (% of GDP),NE.EXP.GNFS.ZS,Equatorial Guinea,GNQ,..,..,75.0953126572332,71.9049918240751,67.6533166625479,65.9632885983728,56.6584738218082,51.4128299447575,58.8631052137026,59.6145344277884,52.8069254101439,43.3250374271682
Exports of goods and services (% of GDP),NE.EXP.GNFS.ZS,Eritrea,ERI,..,9.67062059350866,18.1548372567671,..,..,..,..,..,..,..,..,..
Exports of goods and services (% of GDP),NE.EXP.GNFS.ZS,Estonia,EST,..,61.6273943170743,86.6037914150865,86.2077922686801,84.5681702038371,81.8654328816924,77.4354984416443,77.00753773581,75.8098540993405,74.469196995113,74.0465861275791,71.1758186404743
Exports of goods and services (% of GDP),NE.EXP.GNFS.ZS,Eswatini,SWZ,59.0212523525337,71.2690588001201,34.8277475773766,36.6920760426419,40.5334601143851,43.8609977942803,43.1130706092413,44.0590761378085,43.5130705771597,40.4420078329844,45.8951959242599,..
Exports of goods and services (% of GDP),NE.EXP.GNFS.ZS,Ethiopia,ETH,..,..,16.6868531997337,13.7672981990263,12.484073558977,11.6416199095703,9.36331359735926,7.81208050267299,7.62936862241418,8.37267586646371,7.9399766087609,7.08963417832595
Exports of goods and services (% of GDP),NE.EXP.GNFS.ZS,Faroe Islands,FRO,..,49.8352341778069,50.5960037091322,52.349928502641,53.5288017730424,51.3575169689621,51.211522002184,53.7462710853176,56.7477916555662,53.3926717874196,56.5065585957171,..
Exports of goods and services (% of GDP),NE.EXP.GNFS.ZS,Fiji,FJI,62.3434343434343,65.3864457072474,59.2803210873542,61.1125502642216,56.8738469026462,52.3800919477496,48.591493133609,46.6466751693095,45.9843034650057,47.9129068803323,48.1317647147994,27.6367543326061
Exports of goods and services (% of GDP),NE.EXP.GNFS.ZS,Finland,FIN,22.1462417132994,42.0310461588074,38.900392933262,38.8082790730065,38.0176291228019,36.4814376235518,35.4069588665232,34.8104524683015,37.5495468424797,38.4677985848168,39.8409809368713,36.1851047343216
Exports of goods and services (% of GDP),NE.EXP.GNFS.ZS,France,FRA,20.9757333804124,28.5949742490286,28.4213374764194,29.2030271868495,29.3647378670492,29.666684498073,30.5926223781313,30.2475371833945,30.9486331871,31.7136672102555,31.5920554143668,27.8736440773647
Exports of goods and services (% of GDP),NE.EXP.GNFS.ZS,French Polynesia,PYF,..,4.89658290517091,..,..,..,..,..,..,..,..,..,..
Exports of goods and services (% of GDP),NE.EXP.GNFS.ZS,Gabon,GAB,46.0385042576823,69.0321767086082,61.7443721274506,60.9503414381301,57.3574058813271,44.5208923945675,46.0320085043705,44.0353472921111,50.2267539725926,51.1061234924528,50.6731819374394,47.9343790360916
Exports of goods and services (% of GDP),NE.EXP.GNFS.ZS,"Gambia, The",GMB,59.9027362567641,25.7986743189831,16.8594044684804,19.8416822348377,18.9791643659006,21.8368954439609,19.59633316034,15.9115118159461,16.7894553936941,21.7269515894266,20.6373775940739,..
Exports of goods and services (% of GDP),NE.EXP.GNFS.ZS,Georgia,GEO,40,22.9944664162433,34.6877980430713,36.5162906347673,41.7219538979684,39.9344557254852,40.8622366288493,40.7997544368791,46.5276142251531,50.5585276931977,54.8184931411381,37.3544327314742
Exports of goods and services (% of GDP),NE.EXP.GNFS.ZS,Germany,DEU,22.8358365592459,30.8477115722895,45.0571362806101,46.3071201430804,45.4186778593914,45.6192633128717,46.920738356608,46.0732628543356,47.1630406836519,47.3010457679357,46.6242388472224,43.4168953188659
Exports of goods and services (% of GDP),NE.EXP.GNFS.ZS,Ghana,GHA,16.8778904107735,48.8022576190038,36.9366085502594,40.3592181740371,25.6576573962784,29.903799282369,32.6760059390323,32.179173701918,35.3496284028405,35.3941824883303,35.8426561307871,..
Exports of goods and services (% of GDP),NE.EXP.GNFS.ZS,Gibraltar,GIB,..,..,..,..,..,..,..,..,..,..,..,..
Exports of goods and services (% of GDP),NE.EXP.GNFS.ZS,Greece,GRC,14.7785885906513,23.7183809477501,25.4897748402871,28.7413471527883,30.2522665950266,32.4648168586143,32.1743445667151,31.3336500706305,34.9849491290168,38.9561071167539,40.0821945003303,31.8880748545979
Exports of goods and services (% of GDP),NE.EXP.GNFS.ZS,Greenland,GRL,..,..,37.9979322930038,37.5119902093739,37.7008521502702,38.4728230205003,37.5798451272169,40.765047712594,40.9009810277485,40.8302110037468,..,..
Exports of goods and services (% of GDP),NE.EXP.GNFS.ZS,Grenada,GRD,33.4746518110153,45.3283259733251,25.194944184447,25.8151697418801,25.4261893776392,52.4980668765235,51.2273501001924,49.4347569880495,51.3596657179989,53.2090204976739,52.1892264559938,23.070344288216
Exports of goods and services (% of GDP),NE.EXP.GNFS.ZS,Guam,GUM,..,..,18.6195826645265,19.0693257359924,19.5036117799593,18.8413547237077,18.0720813933437,18.9628876461617,18.9755529685681,19.2530160304082,21.7873554111868,..
Exports of goods and services (% of GDP),NE.EXP.GNFS.ZS,Guatemala,GTM,21.0275209423808,20.1950343956927,27.0677057848772,25.267092636425,21.9981553963722,21.7443629245636,19.8299076925978,18.7530892947864,18.4950463014753,18.1989699881601,17.649123759796,16.8953212822689
Exports of goods and services (% of GDP),NE.EXP.GNFS.ZS,Guinea,GIN,31.0752357966487,24.5238730443766,32.6022412272725,33.1373915984185,26.4706206459551,26.6885101439274,21.4968703899761,29.3715113131453,44.6602984531036,40.2070955329069,29.9609048010853,53.1407223701493
Exports of goods and services (% of GDP),NE.EXP.GNFS.ZS,Guinea-Bissau,GNB,9.93598936667604,21.7558574111665,25.6740075016207,15.4752133462098,18.2571916032992,20.2074001359927,27.5430439150609,26.5081142999537,27.7739726207238,25.2760949743129,20.2879496621221,14.3870438781701
Exports of goods and services (% of GDP),NE.EXP.GNFS.ZS,Guyana,GUY,62.706670770763,96.0799732120736,..,..,..,..,..,..,..,..,..,..
Exports of goods and services (% of GDP),NE.EXP.GNFS.ZS,Haiti,HTI,11.9101836010311,6.71748427743739,10.0831188014494,9.65508983729867,10.8096318741376,11.2390828831168,11.7616036755126,11.6634389148502,10.9605494472549,11.0767065117091,11.0673493844888,8.23183795918161
Exports of goods and services (% of GDP),NE.EXP.GNFS.ZS,Honduras,HND,31.7160545169763,53.972182998888,51.2576866755535,50.9027988216362,47.9414903194725,47.5626547300206,45.1667574562581,42.7141047814182,43.0938548370178,41.4548165613247,39.9185126725089,35.2289163537827
Exports of goods and services (% of GDP),NE.EXP.GNFS.ZS,"Hong Kong SAR, China",HKG,117.269080326271,126.031457172742,212.852416474103,215.849565476503,221.610060304774,213.090413516784,195.89760161449,187.017143169194,188.918523989014,188.360100581316,177.673875748798,176.743067602591
Exports of goods and services (% of GDP),NE.EXP.GNFS.ZS,Hungary,HUN,..,66.8578897770738,86.1885379299848,86.1058589499374,85.582775300321,87.2898498077923,87.596347206209,86.4984188961274,86.0100684543768,83.8860412509213,82.2837237233395,79.6627203325104
Exports of goods and services (% of GDP),NE.EXP.GNFS.ZS,Iceland,ISL,33.1464022420814,32.129906349249,54.5455362550712,54.9260547223621,53.2477515083307,51.5190979483341,51.6517214467662,47.4840362948306,45.7322400076772,46.6386619657391,44.3109156002572,34.2388814218313
Exports of goods and services (% of GDP),NE.EXP.GNFS.ZS,India,IND,7.05335023415339,12.9972363111656,24.5404113195634,24.5344306614108,25.4308613005206,22.9679630081088,19.8131891564097,19.1582349105904,18.7917648392972,19.9412406764114,18.4293865080003,18.0765867880475
Exports of goods and services (% of GDP),NE.EXP.GNFS.ZS,Indonesia,IDN,27.3057589781449,40.9773084738704,26.3273530888836,24.5943787881769,23.9235763793605,23.6659845969367,21.1601792598059,19.0889938536664,20.1773044351106,21.0027464972455,18.4463036035012,17.1683353704186
Exports of goods and services (% of GDP),NE.EXP.GNFS.ZS,"Iran, Islamic Rep.",IRN,13.2787418004901,21.4670575678483,25.6329524095113,24.1288637454206,26.8818571533025,23.1408614562004,19.7433861706823,22.4040259830324,24.9421780525071,33.2282760096373,25.26651512377,15.031970865166
Exports of goods and services (% of GDP),NE.EXP.GNFS.ZS,Iraq,IRQ,7.69831832852047,75.7037742203896,44.4175230392819,44.5084353612381,39.6635365352026,38.9417264514779,34.5141464410956,28.1085236792986,33.30652640593,43.7043127501367,39.968190663865,..
Exports of goods and services (% of GDP),NE.EXP.GNFS.ZS,Ireland,IRL,54.7062377314723,94.3894577763648,103.273302026359,104.273175824409,103.808622575844,109.96027589003,121.980527058129,121.542510587379,121.126410017488,122.990378775336,127.927930234974,131.112559974595
Exports of goods and services (% of GDP),NE.EXP.GNFS.ZS,Isle of Man,IMN,..,..,..,..,..,..,..,..,..,..,..,..
Exports of goods and services (% of GDP),NE.EXP.GNFS.ZS,Israel,ISR,..,35.4715032881089,35.4452575697711,36.0629105632769,33.7855466843037,32.2745313772615,31.4777345031556,30.2241310755996,29.6636855223984,30.2560052907532,29.7589066502929,28.3905764883413
Exports of goods and services (% of GDP),NE.EXP.GNFS.ZS,Italy,ITA,18.2594374997197,25.6277321000853,26.8724634660876,28.3792428359574,28.6332430796987,29.1088281864091,29.7159823723612,29.3278907466434,30.733733319636,31.3504623226266,31.6957979922851,29.4897132462688
Exports of goods and services (% of GDP),NE.EXP.GNFS.ZS,Jamaica,JAM,48.0631753995328,38.7900457000845,30.368613897616,30.1837114553703,30.5758831810158,31.254604696531,29.9216654806929,31.8134375482687,34.6570625717339,38.5638482851901,38.0360807474106,37.8999801885696
Exports of goods and services (% of GDP),NE.EXP.GNFS.ZS,Japan,JPN,10.21975999127,10.4634942027505,14.7744622613499,14.4147746129824,15.7841567318773,17.4186553484795,17.4367598376529,16.0579692360598,17.5914391047836,18.3294509642036,17.3649261403218,..
Exports of goods and services (% of GDP),NE.EXP.GNFS.ZS,Jordan,JOR,59.8371326043158,41.8292026516424,46.5505776295546,45.225985406904,41.2956035736517,42.1339077050464,36.5444370225267,34.3952100655679,34.533928292897,35.1547480791817,36.3350305916633,23.7202894605874
Exports of goods and services (% of GDP),NE.EXP.GNFS.ZS,Kazakhstan,KAZ,..,56.6024267995373,46.4646627947552,44.1096630384291,38.6170377152797,39.3417580907293,28.5167080072354,31.8438886422836,32.3977529369879,37.6252184252873,36.4389870990994,..
Exports of goods and services (% of GDP),NE.EXP.GNFS.ZS,Kenya,KEN,25.6926059649364,21.5875711417625,21.6259724449116,22.2273535709525,19.9253965678206,18.2969813823187,16.5735082046997,14.3272018615618,13.2319639975409,13.1741395622945,12.0317975926968,11.2604840756098
Exports of goods and services (% of GDP),NE.EXP.GNFS.ZS,Kiribati,KIR,20.2309803921569,11.8358620689655,14.2010524343931,13.8905065392382,11.9499741839252,13.4107131212913,15.6246295686533,19.2393950510238,15.7171035939073,9.63032728985166,..,..
Exports of goods and services (% of GDP),NE.EXP.GNFS.ZS,"Korea, Dem. People's Rep.",PRK,..,..,..,..,..,..,..,..,..,..,..,..
Exports of goods and services (% of GDP),NE.EXP.GNFS.ZS,"Korea, Rep.",KOR,24.9943407384065,33.9391689573172,53.3377319003336,54.0940513351953,51.2920711097027,47.8314208662979,42.989561527711,40.1326509111205,40.9342069409884,41.7132908430894,39.9471631621625,36.8974267959481
Exports of goods and services (% of GDP),NE.EXP.GNFS.ZS,Kosovo,XKX,..,..,23.6118246962301,23.2542440895074,21.9014343108174,22.5025361472833,21.9388135009471,23.6985370916459,27.0840892436739,28.8177145745677,29.1162467645651,21.9959307114799
Exports of goods and services (% of GDP),NE.EXP.GNFS.ZS,Kuwait,KWT,44.9389489749774,56.4721744466436,73.1983782817688,74.731693700831,70.8615345368996,68.5061434722771,53.7662480818489,47.6317246344806,51.1963156080355,57.4954948769884,53.2934327593972,..
Exports of goods and services (% of GDP),NE.EXP.GNFS.ZS,Kyrgyz Republic,KGZ,29.2056074766355,41.8478618433635,54.5384771657381,44.4042009680122,42.250153956658,37.4486515894922,35.1896004872594,35.8254088751692,34.2528413648354,31.6017300051143,35.2341542041409,31.3410418245676
Exports of goods and services (% of GDP),NE.EXP.GNFS.ZS,Lao PDR,LAO,11.3287632936327,30.6620036018333,40.3431560969975,37.8767283496857,38.1731033982191,40.754546651049,33.9522573081909,33.2094274563541,..,..,..,..
Exports of goods and services (% of GDP),NE.EXP.GNFS.ZS,Latvia,LVA,..,36.8292876336367,57.8830262174575,61.1077676975383,59.93492935543,61.1653759795022,60.2796121539303,59.6113143510042,61.6262394869274,61.4162033033567,60.2120289650503,60.2791218000788
Exports of goods and services (% of GDP),NE.EXP.GNFS.ZS,Lebanon,LBN,17.9927860454404,14.1775557263643,36.3630972318634,28.7966569438561,26.6301495356653,23.7367818684847,23.1350170321601,21.701625722031,21.8803245367095,20.7222008118017,35.3581882542237,26.8907336614014
Exports of goods and services (% of GDP),NE.EXP.GNFS.ZS,Lesotho,LSO,..,..,47.7226218775705,41.7959330582541,38.2496608561215,38.1496950375747,42.8905796950375,45.7884591926558,47.488385176216,50.947089589845,45.4880154722391,..
Exports of goods and services (% of GDP),NE.EXP.GNFS.ZS,Liberia,LBR,..,31.3764073226545,21.8072977481234,32.9127048879089,34.5794913596348,28.432191475827,19.4690273843248,21.4166340739258,24.2841919916724,26.0110294117647,28.7253281457615,28.6066640677966
Exports of goods and services (% of GDP),NE.EXP.GNFS.ZS,Libya,LBY,39.6762370189371,31.558004285277,54.8294451375974,74.622458857696,70.4337334933974,47.0143266475645,39.9666607308094,26.1384450271779,49.9423645068768,56.9490768206505,64.3708165424754,33.8903236279954
Exports of goods and services (% of GDP),NE.EXP.GNFS.ZS,Liechtenstein,LIE,..,..,..,..,..,..,..,..,..,..,..,..
Exports of goods and services (% of GDP),NE.EXP.GNFS.ZS,Lithuania,LTU,..,38.593931417507,72.8810089085961,78.2266282268662,78.668573312647,72.2704251906117,68.7776407338805,67.5873830562834,73.5951637391515,75.245341014079,77.4334461004381,74.0737357199101
Exports of goods and services (% of GDP),NE.EXP.GNFS.ZS,Luxembourg,LUX,97.8007609925223,148.484907700666,177.989656164445,186.444307394605,190.628582291961,212.607099406063,221.196586443064,213.035692906183,217.621360613456,211.559048709607,208.752749843757,214.526761536337
Exports of goods and services (% of GDP),NE.EXP.GNFS.ZS,"Macao SAR, China",MAC,98.252688172043,89.2622634221707,90.3387512777639,90.7725744754839,90.6557309363456,85.641344899616,78.4800698154005,76.6107196360206,80.411935816834,82.4928488068652,82.2296559563981,62.2537268901943
Exports of goods and services (% of GDP),NE.EXP.GNFS.ZS,Madagascar,MDG,12.8702707843026,19.1196684495627,22.7196358351714,21.7806861493841,23.2721611375908,28.2819076178619,28.3906387132497,29.092566284279,30.9026317216231,29.179669199106,26.4519416658874,23.2627338534635
Exports of goods and services (% of GDP),NE.EXP.GNFS.ZS,Malawi,MWI,..,..,..,..,..,..,..,..,..,..,..,..
Exports of goods and services (% of GDP),NE.EXP.GNFS.ZS,Malaysia,MYS,74.4661197000361,119.809708726968,85.2554421085998,79.2999139255312,75.6290410302627,73.7934986257765,69.4486908970754,66.7754454542508,70.011742508597,68.5695831442052,65.2206270042773,61.4721626931771
Exports of goods and services (% of GDP),NE.EXP.GNFS.ZS,Maldives,MDV,85.4529964461321,..,..,..,..,91.2941274036136,78.3552662834339,71.9791976225854,72.3037956762918,70.1294335714072,69.0233672857999,..
Exports of goods and services (% of GDP),NE.EXP.GNFS.ZS,Mali,MLI,15.6535918082124,22.4785904568103,22.7261779161711,27.8563400059191,24.9405402595496,22.5554869569717,24.0437085118274,23.4429129749282,22.2140939375412,24.5223744016967,24.9819872377409,26.369475252241
Exports of goods and services (% of GDP),NE.EXP.GNFS.ZS,Malta,MLT,75.8336262449983,120.249128678755,160.586339341942,163.11997213645,155.972434583253,149.812516183676,154.61815491915,150.384854981975,150.456222265436,142.476446176766,143.107347418752,140.580485581041
Exports of goods and services (% of GDP),NE.EXP.GNFS.ZS,Marshall Islands,MHL,..,28.6963306530267,51.3278180598588,55.6996014660021,52.0360267560555,50.6076001906197,44.8141412284028,36.3738636470781,39.1153359621133,40.3904256937058,..,..
Exports of goods and services (% of GDP),NE.EXP.GNFS.ZS,Mauritania,MRT,36.1799681233238,25.5171157140843,50.1828096997874,48.2613552096143,45.5485992122422,37.3892007219428,33.8216366847367,31.9297815882331,39.0969243966988,39.2692206216867,39.9978488910387,41.1426390791492
Exports of goods and services (% of GDP),NE.EXP.GNFS.ZS,Mauritius,MUS,64.9568965517241,61.094214849751,52.4441473837658,53.7921652730405,48.4174147482391,48.8461008718009,47.86224697665,44.2503421388566,42.451788163193,40.963437338963,38.5212524058097,29.998486383271
Exports of goods and services (% of GDP),NE.EXP.GNFS.ZS,Mexico,MEX,18.7044710491717,25.4067169365962,31.0367071399496,32.2655677637235,31.3056529459396,31.8734413093812,34.5248858421072,37.0421710841871,37.6515684577081,39.2594612441285,38.8323238310596,40.09167339263
Exports of goods and services (% of GDP),NE.EXP.GNFS.ZS,"Micronesia, Fed. Sts.",FSM,..,17.9710963777019,24.7142642376396,29.8877887062653,30.3974220590238,31.8284267419047,27.0650027062475,27.6542051349344,29.9609618323775,35.4747304458985,23.6450174312345,..
Exports of goods and services (% of GDP),NE.EXP.GNFS.ZS,Moldova,MDA,..,49.6001138108804,32.5404569318031,31.1328505077314,32.0926132528014,31.1706949886454,31.8954513671775,32.3091153609694,31.0987618632711,30.1387050579514,31.4066030957742,27.2632404126507
Exports of goods and services (% of GDP),NE.EXP.GNFS.ZS,Monaco,MCO,..,..,..,..,..,..,..,..,..,..,..,..
Exports of goods and services (% of GDP),NE.EXP.GNFS.ZS,Mongolia,MNG,18.274701678859,53.9967514658612,52.5535550456296,43.5721511955575,38.8902374821224,52.2489986932875,45.6455947692452,50.2009554202799,59.794641326212,58.4723496187406,60.1039290683551,58.960472202544
Exports of goods and services (% of GDP),NE.EXP.GNFS.ZS,Montenegro,MNE,..,36.8149918504193,42.3488436130938,43.6724829379562,41.3423477062479,40.143704803058,42.1180721256354,40.600655705865,41.0551905042252,42.8749910735941,43.6989926166454,25.7541127242497
Exports of goods and services (% of GDP),NE.EXP.GNFS.ZS,Morocco,MAR,24.5593205075626,26.7874316586441,34.7000342650751,34.9295478964619,32.7776435173172,34.6324088802822,34.8000404878789,35.3515345494454,37.2238240149758,38.7774783641854,39.1092540632574,35.4507625104632
Exports of goods and services (% of GDP),NE.EXP.GNFS.ZS,Mozambique,MOZ,..,11.1961980245644,30.0982502602008,28.8839772980214,26.7439359909392,31.2840395822831,31.0781713763782,33.5453171676439,38.5790510296602,44.8700028830136,41.0113222521723,..
Exports of goods and services (% of GDP),NE.EXP.GNFS.ZS,Myanmar,MMR,..,0.538837892336937,0.0994649125401589,11.4983610766133,19.6350983163271,20.0904021624553,22.9751672339693,25.9427297188825,28.3597133642041,30.3897507155071,28.0415597945594,28.9737173986047
Exports of goods and services (% of GDP),NE.EXP.GNFS.ZS,Namibia,NAM,43.560472410952,40.7361505952649,45.5397819585005,40.0583380459009,37.5019849179846,39.0170852038049,35.3708483830288,35.0094674115254,33.6208046048214,35.7688367476305,35.8214826466712,32.9861597614943
Exports of goods and services (% of GDP),NE.EXP.GNFS.ZS,Nauru,NRU,..,..,61.1940298507463,71.2765957446808,89.5833333333333,79.8245614035088,52.7325023969319,52.3636363636364,35.7880247763248,26.25,19.9637023593466,..
Exports of goods and services (% of GDP),NE.EXP.GNFS.ZS,Nepal,NPL,10.5273091204456,23.2840037102623,7.78885970257242,8.75029128721577,9.2946586776145,10.124042118155,10.2145885930146,8.1795780409177,7.81218865494721,7.81564102171194,7.77993647454519,6.76009609107499
Exports of goods and services (% of GDP),NE.EXP.GNFS.ZS,Netherlands,NLD,54.4147454485233,66.0332693962704,75.5030683053513,79.5033738356974,79.880477786038,80.5779081541485,82.658896708444,79.5351647591471,83.391768024212,84.6834636757465,82.5377127008628,77.8566295252439
Exports of goods and services (% of GDP),NE.EXP.GNFS.ZS,New Caledonia,NCL,18.4876237916876,..,..,..,..,..,..,..,..,..,..,..
Exports of goods and services (% of GDP),NE.EXP.GNFS.ZS,New Zealand,NZL,26.7618584733406,35.7454584901409,30.3950240582091,28.8593905898689,28.8135811643821,27.9828573783327,27.8585415524399,26.4757462549093,27.3322484069435,27.5925026326857,26.9868974011425,..
Exports of goods and services (% of GDP),NE.EXP.GNFS.ZS,Nicaragua,NIC,24.9483592559642,20.1081658866931,45.0167211873184,47.4691021996411,45.2141568150849,45.0076685375953,40.0837486734521,38.8819784306042,41.3390492880402,42.2774929620645,45.0406387282891,42.3229545412598
Exports of goods and services (% of GDP),NE.EXP.GNFS.ZS,Niger,NER,15.0686349657165,14.3397037015635,15.2895554371407,16.1005770719535,16.9790336020885,15.945862927875,13.623727148784,11.8820954218532,12.8175210264846,11.2887562380926,11.015651505512,..
Exports of goods and services (% of GDP),NE.EXP.GNFS.ZS,Nigeria,NGA,20.9747728482485,36.0232656065616,31.616940212958,31.5465877297917,18.0499065868892,18.4351260621597,10.6663096236472,9.21810969847623,13.1715621009489,15.4968891804996,14.2209267912443,8.82952954354933
Exports of goods and services (% of GDP),NE.EXP.GNFS.ZS,North Macedonia,MKD,24.5678571428571,32.9468400859053,47.1242131386987,45.3742530045875,43.396474533315,47.6628552909135,48.7379999069691,50.663842164107,55.145719342637,60.3751388208527,62.2961331058475,58.1363238651833
Exports of goods and services (% of GDP),NE.EXP.GNFS.ZS,Northern Mariana Islands,MNP,..,..,43.4842249657064,50.8042895442359,52.0725388601036,52.5240384615385,52.967032967033,71.7073170731707,69.2948717948718,50.7680491551459,42.0473773265651,..
Exports of goods and services (% of GDP),NE.EXP.GNFS.ZS,Norway,NOR,39.4194916384392,45.7323541763557,41.2739648574507,40.6824371898883,39.1971735047655,38.996355721797,37.8018159096519,35.4599263818255,36.3329956891189,37.9716930695855,36.3240958075241,32.5183611888266
Exports of goods and services (% of GDP),NE.EXP.GNFS.ZS,Oman,OMN,47.2300741169401,53.6920636542102,64.3689074271867,63.2052997917528,63.8715891428643,61.0966309201655,47.3438950324333,39.2631434091199,44.6220782320847,52.0852013149535,52.2964827259804,..
Exports of goods and services (% of GDP),NE.EXP.GNFS.ZS,Pakistan,PAK,14.788718407651,12.1195467872054,13.966669657767,12.3966627590851,13.2771534315669,12.2425836268349,10.6044113782278,9.14572693911771,8.2573202960672,8.97196644517372,10.1190177790079,9.57783056947038
Exports of goods and services (% of GDP),NE.EXP.GNFS.ZS,Palau,PLW,..,43.3788684017157,55.4573612152895,60.0069303919344,59.6565079514393,61.2391784161695,58.2903589382641,52.5643467516015,49.8450578595126,47.6148364847985,..,..
Exports of goods and services (% of GDP),NE.EXP.GNFS.ZS,Panama,PAN,57.4932945723843,62.0105777619926,78.2305354867354,75.1912579118816,65.1615464069,55.3574218671752,47.6848616611021,41.9730018633101,41.803812374704,42.6920156541909,40.7382175513828,..
Exports of goods and services (% of GDP),NE.EXP.GNFS.ZS,Papua New Guinea,PNG,40.6247968272544,66.1783592514226,..,..,..,..,..,..,..,..,..,..
Exports of goods and services (% of GDP),NE.EXP.GNFS.ZS,Paraguay,PRY,52.2235305165074,43.3309260294934,40.238859668619,37.995519198228,38.7136655822512,35.4644118489881,34.7658134731278,37.1654802894568,38.4407840459973,36.9452303590837,36.1999981632141,34.7163702431011
Exports of goods and services (% of GDP),NE.EXP.GNFS.ZS,Peru,PER,15.6971914620014,16.7683737208169,30.5027597563889,27.4496143710972,24.8082994208508,22.6069703758151,21.2873252858958,22.6003137409908,24.7198719746973,25.1947331151557,23.8959652500538,22.3344947735192
Exports of goods and services (% of GDP),NE.EXP.GNFS.ZS,Philippines,PHL,27.5162290192409,43.3442192240219,29.1054288781405,27.4670738577233,26.1774198090007,27.3545041909285,27.2080572390451,26.6730033435157,29.5522908546692,30.2136053733484,28.382920012841,25.1881089073629
Exports of goods and services (% of GDP),NE.EXP.GNFS.ZS,Poland,POL,..,27.1883262545709,42.3942230351554,44.2514731046751,46.0026088160493,47.2196834583496,49.0912280857603,51.9248591484674,54.1610234014378,55.2414620408144,55.5352492287141,55.6335125668457
Exports of goods and services (% of GDP),NE.EXP.GNFS.ZS,Portugal,PRT,29.1691775307804,28.2046205938904,34.4548615994609,37.7780148210557,39.6065049729616,40.2159680026703,40.6151154462762,40.2108236358286,42.7242663980773,43.4457190264876,43.5443105126526,36.7035161290582
Exports of goods and services (% of GDP),NE.EXP.GNFS.ZS,Puerto Rico,PRI,63.0814635210608,62.341293122729,64.0527265606861,57.4524835376036,60.8666666666667,60.8186963252764,67.198764504162,68.7602732307999,68.723047401772,60.0186276938321,..,..
Exports of goods and services (% of GDP),NE.EXP.GNFS.ZS,Qatar,QAT,..,67.2833585991399,72.619709146881,76.4724190761947,72.7178350198088,67.9981181342453,57.061477766293,47.7138414943703,52.8894226316896,55.9418631732842,52.3472678757627,..
Exports of goods and services (% of GDP),NE.EXP.GNFS.ZS,Romania,ROU,16.726891246066,21.58888431382,37.0550979718903,37.5318245668167,40.0340615697363,41.4272337371785,41.3851279458834,41.7762791321969,42.0246190766547,41.8616969020051,40.4217842480696,37.25760476446
Exports of goods and services (% of GDP),NE.EXP.GNFS.ZS,Russian Federation,RUS,18.1620614715927,44.0604413055146,28.0553614798549,26.9073203393663,25.845336826255,27.1110970517525,28.703389442924,25.8544829769167,26.0908809797568,30.7932713033152,28.5363983565997,25.5231826070911
Exports of goods and services (% of GDP),NE.EXP.GNFS.ZS,Rwanda,RWA,5.61460915538142,5.38060935227154,12.6660117383553,12.0012758690102,13.5000696498985,13.8763960665894,13.23909420594,15.4302985939835,20.5283852817577,21.1005975147837,21.8087664663253,19.0302880690357
Exports of goods and services (% of GDP),NE.EXP.GNFS.ZS,Samoa,WSM,..,..,28.6515247494877,28.3940180040898,28.878742882963,29.0423124349624,28.3753331744583,30.3819616449329,31.5405476764148,34.1812632290425,37.7125804110899,31.7337315332032
Exports of goods and services (% of GDP),NE.EXP.GNFS.ZS,San Marino,SMR,..,..,..,..,..,..,174.452680954757,173.068169220566,168.778681335859,166.597497668983,163.997239164221,..
Exports of goods and services (% of GDP),NE.EXP.GNFS.ZS,Sao Tome and Principe,STP,..,..,..,..,..,..,..,..,..,..,..,..
Exports of goods and services (% of GDP),NE.EXP.GNFS.ZS,Saudi Arabia,SAU,40.3347940771071,43.4052706614089,56.0492397321467,54.2708404963725,51.9179576046333,46.8752915114018,33.3211712418097,31.1442093932068,34.8530548559188,40.0391406236609,36.0494170526613,26.342634301564
Exports of goods and services (% of GDP),NE.EXP.GNFS.ZS,Senegal,SEN,17.0561016454852,17.6656136721635,21.303548885652,22.4743744215738,22.3497423099059,21.7782967413225,22.6771945016724,21.5608580962682,21.9300831477167,22.9490914783308,24.3102656999259,22.4208921541514
Exports of goods and services (% of GDP),NE.EXP.GNFS.ZS,Serbia,SRB,..,8.78303735272921,33.0018249483579,35.8448069778677,39.8515049086914,42.0775289604243,45.1772418040017,48.5170935445558,50.4715286434326,50.4345612977047,51.0497865995374,47.9886418741307
Exports of goods and services (% of GDP),NE.EXP.GNFS.ZS,Seychelles,SYC,15.3273854913324,75.4732018330345,95.7690959381631,99.3293601451528,90.8113046867575,88.0123586712212,81.0912580145093,80.7317762697403,88.635524283711,84.1033811447278,83.5830445695129,77.1911570844845
Exports of goods and services (% of GDP),NE.EXP.GNFS.ZS,Sierra Leone,SLE,34.6898949037465,18.1348435554968,16.2666933861058,32.9053270557266,28.6267570505227,30.7600393800619,19.3625445264294,24.9140932574707,26.051347364045,17.4672993262746,16.0052547096845,12.8281444287588
Exports of goods and services (% of GDP),NE.EXP.GNFS.ZS,Singapore,SGP,177.192544433931,188.350890284751,203.327708649538,196.719612875759,195.077796338143,191.953535787505,178.384608499682,164.744504762108,171.089214412281,177.06134536353,175.892268009143,176.240871003136
Exports of goods and services (% of GDP),NE.EXP.GNFS.ZS,Sint Maarten (Dutch part),SXM,..,..,109.948675101456,113.294044313481,121.348989623157,100.529385374607,97.4008024966563,92.4977895667551,78.2747304266292,67.4835061262959,..,..
Exports of goods and services (% of GDP),NE.EXP.GNFS.ZS,Slovak Republic,SVK,23.8134842229012,53.205468406987,84.9075350901021,90.9221018613518,93.4972605723115,91.5015850507224,92.0120877704125,93.712186618535,95.2065919871945,96.3755023728666,92.4100235941361,85.7075023067471
Exports of goods and services (% of GDP),NE.EXP.GNFS.ZS,Slovenia,SVN,..,50.1351765505999,70.2471458085713,72.891588930235,74.2164751718266,76.1517421398548,77.1486782584484,77.5981668322775,83.1255055788893,84.8152032316064,83.9634681741247,77.8830111552386
Exports of goods and services (% of GDP),NE.EXP.GNFS.ZS,Solomon Islands,SLB,46.4088397790055,27.0940570893776,51.165399476505,51.9634703196347,44.6434282059482,42.3959390862944,40.1643305944901,40.1661038605458,41.0407587798001,43.4595112601821,37.4551971326165,27.6665881798917
Exports of goods and services (% of GDP),NE.EXP.GNFS.ZS,Somalia,SOM,9.78674718576036,..,..,..,24.2164219979374,23.8348327791959,25.6359529992287,25.418471123299,22.0530806266659,23.7137457843057,22.6687373928892,14.2847616969377
Exports of goods and services (% of GDP),NE.EXP.GNFS.ZS,South Africa,ZAF,23.4949209120617,27.1588800453122,30.4609405932431,29.7238793583952,30.9713411232732,31.4686452082634,30.152888329641,30.5809279982381,29.6276693701772,29.9070826047072,29.8538392770199,30.4669596274857
Exports of goods and services (% of GDP),NE.EXP.GNFS.ZS,South Sudan,SSD,..,..,66.0761203752424,42.8320523585268,9.74075785850552,38.3916172930278,36.6513492804707,..,..,..,..,..
Exports of goods and services (% of GDP),NE.EXP.GNFS.ZS,Spain,ESP,15.7247981570607,28.5633579326111,29.5349622049272,31.45527248111,32.9625774735678,33.4825675913959,33.6265184346551,33.8800904977376,35.1494620296471,35.1625876058272,34.954655951783,30.6209378687782
Exports of goods and services (% of GDP),NE.EXP.GNFS.ZS,Sri Lanka,LKA,30.1808045148298,39.015700886425,20.8968387282014,19.8164817811519,20.3203983024553,21.088762290753,21.013103191359,21.1739837919769,21.8314646397564,23.0385226437983,23.1289380030783,16.5835642765473
Exports of goods and services (% of GDP),NE.EXP.GNFS.ZS,St. Kitts and Nevis,KNA,..,..,..,..,..,..,..,..,..,..,..,..
Exports of goods and services (% of GDP),NE.EXP.GNFS.ZS,St. Lucia,LCA,..,..,..,..,..,..,..,..,..,..,..,..
Exports of goods and services (% of GDP),NE.EXP.GNFS.ZS,St. Martin (French part),MAF,..,..,..,..,..,..,..,..,..,..,..,..
Exports of goods and services (% of GDP),NE.EXP.GNFS.ZS,St. Vincent and the Grenadines,VCT,54.1533767854666,45.2767055172865,27.0362356550081,27.1743313450067,..,..,..,..,..,..,..,..
Exports of goods and services (% of GDP),NE.EXP.GNFS.ZS,Sudan,SDN,4.02138910265514,15.9845570577283,14.3228701172354,6.95656992764634,9.8182026342843,7.48494008323434,6.50335211621127,5.28593449630799,6.49497391242441,7.63868425239432,8.47952377572028,5.12531269410863
Exports of goods and services (% of GDP),NE.EXP.GNFS.ZS,Suriname,SUR,..,..,..,..,..,..,40.7936054810163,43.5415960896288,48.276503179266,55.2947488431359,49.5632563605756,64.2975207404216
Exports of goods and services (% of GDP),NE.EXP.GNFS.ZS,Sweden,SWE,27.9221777772976,43.2584584604537,45.2711911918356,45.027525416194,42.5268091342415,43.2661612480684,43.7667675162599,42.691478270481,43.734721932138,45.6830615126713,47.8092109523511,44.5756209210527
Exports of goods and services (% of GDP),NE.EXP.GNFS.ZS,Switzerland,CHE,41.3703380710716,51.2984432612434,65.8992878988103,67.4064519955182,71.3815393267253,63.8096991388488,62.3967698753012,65.6736930688113,65.0797829663038,66.1556552660556,65.5317042793177,62.3420186102293
Exports of goods and services (% of GDP),NE.EXP.GNFS.ZS,Syrian Arab Republic,SYR,28.3391968039116,35.3894830794694,..,..,..,..,..,..,..,..,..,..
Exports of goods and services (% of GDP),NE.EXP.GNFS.ZS,Tajikistan,TJK,..,86.7521128337158,16.4476856516722,17.2772798792139,11.088143661398,9.17009118973376,..,..,14.9285396132184,14.3754784742862,14.9799392742745,17.0493454655518
Exports of goods and services (% of GDP),NE.EXP.GNFS.ZS,Tanzania,TZA,12.62114884801,10.8090877557931,21.6342823273901,22.3720706818596,19.0122040044335,18.0692094479871,17.1049113506573,16.3499746553671,15.1402777418547,14.7391433931711,16.0078638670646,14.2954786493941
Exports of goods and services (% of GDP),NE.EXP.GNFS.ZS,Thailand,THA,34.1319282448808,64.840250738685,70.8549093801611,68.9512356297981,67.1711410731483,68.3941351612178,67.6366902705865,67.0708839693011,66.6728324663767,64.856468486664,59.4874864555698,51.4299636993417
Exports of goods and services (% of GDP),NE.EXP.GNFS.ZS,Timor-Leste,TLS,..,10.6142970116967,6.33161010439305,7.20195758837324,5.5853117888427,4.57248523019994,3.04240914574839,3.13704896484848,2.38723757034238,2.92419700840101,28.1520734493142,..
Exports of goods and services (% of GDP),NE.EXP.GNFS.ZS,Togo,TGO,33.4738898770104,28.217465289608,43.6356472797553,45.2053609986539,46.4760239573026,39.7162731254092,35.8463566899441,26.9067158239235,25.2702383202812,23.943475257357,23.0615819514862,21.8295360349223
Exports of goods and services (% of GDP),NE.EXP.GNFS.ZS,Tonga,TON,33.8701785859904,14.268589417129,16.2376556771541,17.0714627093833,20.3548992808251,17.3453861326325,17.9439644593844,25.7368646175559,22.033421308971,21.2012020293959,21.0516576302175,..
Exports of goods and services (% of GDP),NE.EXP.GNFS.ZS,Trinidad and Tobago,TTO,..,..,..,..,..,..,..,..,..,..,..,..
Exports of goods and services (% of GDP),NE.EXP.GNFS.ZS,Tunisia,TUN,43.5570513235389,39.7300345865581,48.5317604299435,48.5461898353537,46.9665490792892,44.924220474217,40.0763025273589,40.0259897742667,43.8205035810601,48.4924832200484,48.6242294652975,..
Exports of goods and services (% of GDP),NE.EXP.GNFS.ZS,Turkey,TUR,13.3651028519296,19.8811989046161,22.9937012536403,24.3608755208614,23.7930095050818,25.2055416974053,24.5312773389092,23.0835091311263,26.0394223439924,31.2048629463635,32.7414044226863,28.5692307413065
Exports of goods and services (% of GDP),NE.EXP.GNFS.ZS,Turkmenistan,TKM,..,55.2364541451273,59.7971553741823,58.8327446167355,49.8393204013857,46.7801747766921,35.6754642894197,22.1505138514768,22.4683973422127,22.6638117732813,..,..
Exports of goods and services (% of GDP),NE.EXP.GNFS.ZS,Turks and Caicos Islands,TCA,..,..,..,..,..,..,..,..,..,..,..,..
Exports of goods and services (% of GDP),NE.EXP.GNFS.ZS,Tuvalu,TUV,..,..,..,..,..,..,..,..,..,..,..,..
Exports of goods and services (% of GDP),NE.EXP.GNFS.ZS,Uganda,UGA,7.2407208592859,10.651409293254,12.9111631571048,15.5585355337723,16.5842467335063,15.0126737965106,12.9328576854046,12.4807555059969,16.6611294213088,15.0937856215905,17.1980929479003,15.0478229492243
Exports of goods and services (% of GDP),NE.EXP.GNFS.ZS,Ukraine,UKR,27.6431520373362,62.4448756394426,49.8163448823876,47.7207797708926,42.9567198426424,48.5929618158503,52.5976795082231,49.2986194577187,48.0142981525409,45.1993149461495,41.1986693814373,39.0405145129994
Exports of goods and services (% of GDP),NE.EXP.GNFS.ZS,United Arab Emirates,ARE,..,..,90.0765712005007,100.246495561481,100.547788395094,99.5608302752882,100.870480235332,101.003013922614,99.5949384103598,93.0481227958133,92.4562533364679,..
Exports of goods and services (% of GDP),NE.EXP.GNFS.ZS,United Kingdom,GBR,23.0719006680494,25.1970070261885,30.71365624968,29.9874983204519,29.8702042760468,28.1976244868514,27.2637435853891,28.2370587834234,30.1083210836265,30.8900677563461,31.0793597401374,27.3663507160616
Exports of goods and services (% of GDP),NE.EXP.GNFS.ZS,United States,USA,9.25473206751338,10.6913194044121,13.6133373591048,13.6920355236915,13.6252698686445,13.5641341712248,12.4389385481237,11.9077139899094,12.1975159348969,12.2915199559729,11.7561731173036,10.1420956602314
Exports of goods and services (% of GDP),NE.EXP.GNFS.ZS,Uruguay,URY,23.5321233746953,16.6980989454195,26.4221494258189,25.9196294239831,23.3531364214523,23.542661614912,22.4778512508856,26.95431164096,26.1470121161237,26.3964363013547,27.750190305701,25.3732710523544
Exports of goods and services (% of GDP),NE.EXP.GNFS.ZS,Uzbekistan,UZB,..,24.662704263423,26.5258408937836,21.3879449074993,20.8231306576194,17.7327760242286,15.3320737677552,14.8772968212566,21.8011051152928,28.0422527071906,30.260872111674,26.3114607068744
Exports of goods and services (% of GDP),NE.EXP.GNFS.ZS,Vanuatu,VUT,44.1600485608781,39.1789749205417,45.6062695014876,51.3106613932273,51.6821960609273,51.4272375616913,46.0336191420716,48.8660913501836,47.6609019149093,56.6105327921724,41.2881768783961,23.2717326150277
Exports of goods and services (% of GDP),NE.EXP.GNFS.ZS,"Venezuela, RB",VEN,38.1753164731902,29.7442196597828,29.9430146096987,26.1710142521782,24.7649783030385,16.6938273502942,..,..,..,..,..,..
Exports of goods and services (% of GDP),NE.EXP.GNFS.ZS,Vietnam,VNM,36.0386136391372,53.9214970086223,79.3908729873232,80.028618800839,83.6261411693676,86.4047593411237,89.779248637327,93.6239390610103,101.593435844166,105.831805095761,106.795549966641,106.123249980733
Exports of goods and services (% of GDP),NE.EXP.GNFS.ZS,Virgin Islands (U.S.),VIR,..,..,339.018636470866,80.04884004884,67.1185539606592,77.167310877968,41.008537886873,46.7079783113865,62.984844592859,53.714859437751,..,..
Exports of goods and services (% of GDP),NE.EXP.GNFS.ZS,West Bank and Gaza,PSE,..,20.5165059347181,16.0860353474401,15.3263326889683,15.6198438829492,15.8230698299463,16.0623801208096,14.3267945006296,15.7242063492063,15.961564454493,15.5210552426533,16.0385057803654
Exports of goods and services (% of GDP),NE.EXP.GNFS.ZS,"Yemen, Rep.",YEM,..,..,..,..,..,..,..,..,..,..,..,..
Exports of goods and services (% of GDP),NE.EXP.GNFS.ZS,Zambia,ZMB,..,23.9238608307712,40.4712226732921,40.0829109943526,40.4827166938697,38.8222899319378,37.1385258014734,35.3246757489657,34.9928577635918,37.9573531025711,34.6361612120526,..
Exports of goods and services (% of GDP),NE.EXP.GNFS.ZS,Zimbabwe,ZWE,22.8668455706732,38.1597545550961,34.8008015617561,25.1632536958446,21.987758642545,20.9301459192706,19.1601757893503,19.9435315500903,18.179238795243,11.6089909952772,..,..
Exports of goods and services (% of GDP),NE.EXP.GNFS.ZS,Africa Eastern and Southern,AFE,21.778391904616,33.9770847420496,32.7749436584394,30.4182332038275,29.7409149742291,29.1145909093631,25.4350910796665,24.7182490457061,24.8745340502129,26.7329868211778,26.385269675281,24.451044264803
Exports of goods and services (% of GDP),NE.EXP.GNFS.ZS,Africa Western and Central,AFW,22.1122165294876,35.7594157654116,34.1767830899239,34.0715439274497,23.6316199995343,23.6504943489362,17.4893186229043,16.1491517644833,19.7408641249195,21.4683945479794,20.6286682899376,14.2327172568197
Exports of goods and services (% of GDP),NE.EXP.GNFS.ZS,Arab World,ARB,32.1850775535773,43.6069432604047,55.1137514710561,55.8286158589809,54.0407801782316,50.8593732084705,43.7593019481355,40.5193657221887,43.8216235944956,46.7956979387568,44.7993100346953,..
Exports of goods and services (% of GDP),NE.EXP.GNFS.ZS,Caribbean small states,CSS,..,..,..,..,..,..,..,..,..,..,..,..
Exports of goods and services (% of GDP),NE.EXP.GNFS.ZS,Central Europe and the Baltics,CEB,..,37.6184911085111,56.3897333372284,58.6524060706892,60.0363277811176,61.4922178915918,61.9574449778134,62.8746060371289,64.4000759543991,64.4001440952826,63.4585849147241,60.8362180811896
Exports of goods and services (% of GDP),NE.EXP.GNFS.ZS,Early-demographic dividend,EAR,19.4188161271248,25.4898398489137,29.2029790577656,28.6522398634301,28.1220507671348,26.6598783739941,24.2778975400156,23.7561484968383,24.8788263889092,27.1562974284909,26.0881705988946,23.3224165745979
Exports of goods and services (% of GDP),NE.EXP.GNFS.ZS,East Asia & Pacific,EAS,20.5499444575719,27.6603304440316,33.7696788219471,32.9431406604912,32.4628355119378,31.9903525537564,29.8275446048573,27.916313155497,28.8085151100022,28.8664332977067,27.8872335385358,30.0337747980362
Exports of goods and services (% of GDP),NE.EXP.GNFS.ZS,East Asia & Pacific (excluding high income),EAP,17.4133935275737,27.1069574925364,30.0768744585997,28.8793768790717,28.0031029068205,27.1580151510311,25.1118997126302,23.4776377561837,23.9036279258318,23.4755710318226,22.5075490074313,21.9890183718948
Exports of goods and services (% of GDP),NE.EXP.GNFS.ZS,East Asia & Pacific (IDA & IBRD countries),TEA,17.4133935275737,27.1073039879536,30.0772979195724,28.8797615634076,28.0037506101539,27.1586851390088,25.1122967247481,23.4779299355928,23.9037518291782,23.4754080641581,22.5068745751342,21.9890183718948
Exports of goods and services (% of GDP),NE.EXP.GNFS.ZS,Euro area,EMU,25.9611430834411,35.8037116992215,42.3616768955498,43.8192746684704,43.8228402447106,44.3089735406846,45.2702853628423,44.689446211276,46.1909538722056,46.7490155614752,46.4622693136887,43.1399079830524
Exports of goods and services (% of GDP),NE.EXP.GNFS.ZS,Europe & Central Asia,ECS,25.5432044810013,35.7508512496888,40.4987665136446,41.2887890177061,41.1288699121004,41.2165562715016,41.6492144404357,41.2475808609333,42.6530705471591,43.881335417564,43.6164529807453,40.2777514397685
Exports of goods and services (% of GDP),NE.EXP.GNFS.ZS,Europe & Central Asia (excluding high income),ECA,18.516881155931,37.1340507419022,31.2406577279896,30.7554626171498,29.3423959192947,30.3628351539406,30.3566998431739,28.8654784169091,30.1384125313363,34.2375007024925,33.2970962035048,29.3422964085503
Exports of goods and services (% of GDP),NE.EXP.GNFS.ZS,Europe & Central Asia (IDA & IBRD countries),TEC,18.516881155931,35.9068616147816,32.6857076974379,32.4991469020334,31.4978235142259,32.5672921846023,32.8345296758127,31.9027502329906,33.2970946190459,36.9823754729926,36.2538731280977,32.8802558096748
Exports of goods and services (% of GDP),NE.EXP.GNFS.ZS,European Union,EUU,26.2962437009358,36.2580580042602,43.4758211153989,44.8818921141597,44.903703106413,45.5084701918895,46.4313603627573,45.920616136165,47.3877799611799,47.9634393490827,47.7927482925144,44.5427813314773
Exports of goods and services (% of GDP),NE.EXP.GNFS.ZS,Fragile and conflict affected situations,FCS,23.4626100629783,35.8930982987395,32.2071545532015,31.1359252079752,25.5558591726874,23.4747653613977,20.0897418499432,18.1729256520169,22.1671775196492,25.6227151835432,25.0251910544604,..
Exports of goods and services (% of GDP),NE.EXP.GNFS.ZS,Heavily indebted poor countries (HIPC),HPC,18.3234886156323,24.3597346308906,29.5630611415447,28.4389359496867,26.3796498795676,26.11680568887,22.9649075640264,21.6855996447308,23.792561410754,24.3675572298603,24.1630197096412,..
Exports of goods and services (% of GDP),NE.EXP.GNFS.ZS,High income,HIC,20.2606942072741,25.7870747850429,31.764856973178,32.1441919147661,32.0851600200949,31.9627572575813,30.9901404824766,30.1784491270115,31.1856645159275,31.7000790197839,31.109150124194,29.3213147651936
Exports of goods and services (% of GDP),NE.EXP.GNFS.ZS,IBRD only,IBD,16.778416561184,26.2838222111015,28.8101878001106,27.9887171124229,27.2192774629231,26.4418077695538,25.1034403376,24.0935030422357,24.7225251428478,25.8570241104677,24.9253287453962,23.6820662475759
Exports of goods and services (% of GDP),NE.EXP.GNFS.ZS,IDA & IBRD total,IBT,16.8466255058374,26.226831354089,28.6146304468415,27.8007127007444,26.8068937248378,26.0778285535351,24.5943942544792,23.5753474241373,24.2804833743842,25.4176651856306,24.543968126321,23.1388364939392
Exports of goods and services (% of GDP),NE.EXP.GNFS.ZS,IDA blend,IDB,20.8474118909117,29.3614471805397,26.6126707392473,25.3990371511648,18.2309814701932,17.7704229121107,12.7103516005826,11.3418459842682,13.8146214257648,15.8412556613521,15.8093688982625,11.8023014105252
Exports of goods and services (% of GDP),NE.EXP.GNFS.ZS,IDA only,IDX,13.9478388178858,20.6180707595133,25.0392267751463,24.8741584723996,23.9950380132413,24.3981017751655,22.6553200022712,21.7263330023796,22.7308109828104,22.9655441043393,22.7239695739148,18.8114562248726
Exports of goods and services (% of GDP),NE.EXP.GNFS.ZS,IDA total,IDA,17.9448219487167,25.4016674167556,25.8577073132958,25.1474794081025,21.0048580898557,20.9662111139008,17.4766136714857,16.28509201515,18.0522955223009,19.227277503748,19.1258225801576,14.7998060484015
Exports of goods and services (% of GDP),NE.EXP.GNFS.ZS,Late-demographic dividend,LTE,17.5611469419124,28.1059862105116,32.5251611004438,31.8750534639341,31.0821010544518,30.5242296840996,29.3091469144628,27.9395192471918,28.3657701627288,28.7939136302972,27.8607385919378,25.2383100880503
Exports of goods and services (% of GDP),NE.EXP.GNFS.ZS,Latin America & Caribbean,LCN,17.4247874358956,19.0954755820149,23.1744810624943,22.5509835136596,21.6705892354426,20.8561788749156,21.3564016923917,21.800286628568,22.0102154030957,23.546380794042,23.0432864716343,23.9333437949339
Exports of goods and services (% of GDP),NE.EXP.GNFS.ZS,Latin America & Caribbean (excluding high income),LAC,14.7407214799835,17.2590581601745,21.0892002716102,21.0649255574223,20.2240345457908,19.6871883906833,20.1842201765287,20.6567447772576,20.8709294874486,22.6461376141864,22.6684908105624,23.5106306440556
Exports of goods and services (% of GDP),NE.EXP.GNFS.ZS,Latin America & the Caribbean (IDA & IBRD countries),TLA,16.5766307392353,18.5515543807442,22.3073510028263,21.9178454957437,20.9910723926214,20.1789801145346,20.7178403312279,21.1890112343324,21.4055052921634,23.1092476725426,22.9937571715105,23.9333437949339
Exports of goods and services (% of GDP),NE.EXP.GNFS.ZS,Least developed countries: UN classification,LDC,..,26.1831240321454,27.1217777512656,26.3344469063882,26.092945001813,25.2920880063404,21.7613158716671,20.7946164972542,21.7509600982359,23.856757390965,23.3571126103206,20.5711967791788
Exports of goods and services (% of GDP),NE.EXP.GNFS.ZS,Low & middle income,LMY,16.5103005555836,26.0900118038135,28.2244679821814,27.4165126456425,26.383924671906,25.6636372900809,24.0285165520713,22.9214416716851,23.5990188078795,24.7470227705837,23.8679195464649,22.3917558386197
Exports of goods and services (% of GDP),NE.EXP.GNFS.ZS,Low income,LIC,..,..,23.3762112110612,20.3327485299845,19.7126342025338,20.2633195013602,17.7408590617913,16.1278723751201,19.2965858743757,19.7375456655382,18.8135424417819,..
Exports of goods and services (% of GDP),NE.EXP.GNFS.ZS,Lower middle income,LMC,17.4287397407559,27.5917786008481,28.836223152968,27.982649956926,26.9104584045753,25.7271651845248,22.7892198282444,21.9742646700038,23.2925025041628,25.2655629436314,23.6342520849414,20.698134872585
Exports of goods and services (% of GDP),NE.EXP.GNFS.ZS,Middle East & North Africa,MEA,29.844863082209,40.5089223397068,50.7184244692022,51.3013788645437,49.9813790165669,46.8607195528686,40.7092299848034,38.3471199217451,41.2306280726739,44.663385993565,42.0003397900467,..
Exports of goods and services (% of GDP),NE.EXP.GNFS.ZS,Middle East & North Africa (excluding high income),MNA,19.3263575863803,32.5286540683777,31.9977706405658,30.6264367805816,30.1072609705766,27.3203421089654,23.9318190887773,22.3493676246621,26.2694466430394,31.7681763712333,28.889612105172,18.3949486668451
Exports of goods and services (% of GDP),NE.EXP.GNFS.ZS,Middle East & North Africa (IDA & IBRD countries),TMN,19.3263575863803,32.6625990445227,32.1757532249817,30.7975778923392,30.2690234424827,27.448717455156,24.0196870567024,22.4389454460047,26.3871918647347,31.9446686058841,29.0388816948317,18.4269794706084
Exports of goods and services (% of GDP),NE.EXP.GNFS.ZS,Middle income,MIC,16.5474258145272,26.1901116815413,28.2807294562283,27.4981980153083,26.4618315149778,25.7266937353365,24.101949312633,22.9978653414758,23.6474233870822,24.8033819596851,23.9250770572077,22.452835294279
Exports of goods and services (% of GDP),NE.EXP.GNFS.ZS,North America,NAC,10.6131024910918,13.5529954949085,15.0827258190887,15.1262396932567,15.0637595519926,15.1275969079267,14.1080915643028,13.5925209582,13.8531194614868,14.0160150334998,13.4895996740972,11.7483671335659
Exports of goods and services (% of GDP),NE.EXP.GNFS.ZS,Not classified,INX,..,..,..,..,..,..,..,..,..,..,..,..
Exports of goods and services (% of GDP),NE.EXP.GNFS.ZS,OECD members,OED,17.5964854098407,22.9907419778831,27.4520071437457,27.8782422743256,27.8250649596963,27.926178831143,27.5508900617817,27.0390979075428,27.9912074240451,28.5719182977367,28.2310851302252,27.1167256354891
Exports of goods and services (% of GDP),NE.EXP.GNFS.ZS,Other small states,OSS,..,65.0373926768277,71.3792637747365,73.3099823901686,72.0297848717921,68.617504603253,61.5309738037035,55.5406859428489,58.3032952572363,60.0317906009528,57.7741646400694,..
Exports of goods and services (% of GDP),NE.EXP.GNFS.ZS,Pacific island small states,PSS,53.6993502006584,47.6511465518088,48.6719992508691,50.7836119903429,48.0403585273401,45.3637937342229,41.9610486925465,41.5703256230589,40.8663111091565,42.8563208234257,41.7623027387366,27.6206544064032
Exports of goods and services (% of GDP),NE.EXP.GNFS.ZS,Post-demographic dividend,PST,19.1779290200673,24.3563449689438,29.2269905855458,29.5782539592991,29.5598873878467,29.5286540914928,28.8351433097184,28.0940165866389,29.0686974638145,29.5369318177385,29.0740927859129,27.9873855629046
Exports of goods and services (% of GDP),NE.EXP.GNFS.ZS,Pre-demographic dividend,PRE,17.6569494185996,41.5253398194207,35.583559647143,34.3350016175434,27.4345803146287,26.8317281357828,20.5982665838687,18.310702924149,21.498792655748,25.2749676923457,23.9447368003714,16.2552939935233
Exports of goods and services (% of GDP),NE.EXP.GNFS.ZS,Small states,SST,..,63.2420385396172,68.3719735065614,70.1449899252907,69.0658100424487,65.9687534749692,59.2128169375712,53.8673708208444,56.4465295311641,58.2811589494139,56.1966853343797,..
Exports of goods and services (% of GDP),NE.EXP.GNFS.ZS,South Asia,SAS,8.54230544451942,13.7470101260341,22.9514674666973,22.7895156167311,23.5602078395984,21.5885035771164,18.7946497186812,18.0623064929841,17.5880902712383,18.5828649436595,17.5354319449368,16.6930548926635
Exports of goods and services (% of GDP),NE.EXP.GNFS.ZS,South Asia (IDA & IBRD),TSA,8.54230544451942,13.7470101260341,22.9514674666973,22.7895156167311,23.5602078395984,21.5885035771164,18.7946497186812,18.0623064929841,17.5880902712383,18.5828649436595,17.5354319449368,16.6930548926635
Exports of goods and services (% of GDP),NE.EXP.GNFS.ZS,Sub-Saharan Africa,SSF,21.9631350629358,34.8417993551599,33.4306615063819,32.1290881677189,26.8866453619643,26.5617587355186,21.7228170835266,20.6871216161646,22.4595214799379,24.2563849550342,23.6486113276382,19.8507459762797
Exports of goods and services (% of GDP),NE.EXP.GNFS.ZS,Sub-Saharan Africa (excluding high income),SSA,21.9693084430672,34.808784375047,33.382606108489,32.0772242214952,26.8374256035127,26.5144439165194,21.6771054543504,20.6405699456838,22.4082162722715,24.2099865260323,23.6016539486093,19.8007895027614
Exports of goods and services (% of GDP),NE.EXP.GNFS.ZS,Sub-Saharan Africa (IDA & IBRD countries),TSS,21.9631350629358,34.8417993551599,33.4306615063819,32.1290881677189,26.8866453619643,26.5617587355186,21.7228170835266,20.6871216161646,22.4595214799379,24.2563849550342,23.6486113276382,19.8507459762797
Exports of goods and services (% of GDP),NE.EXP.GNFS.ZS,Upper middle income,UMC,16.2768250194671,25.7431413447241,28.1042582814851,27.3442956330749,26.3192509192366,25.7265439267307,24.5183063264195,23.3225196773098,23.7599475612852,24.6568520256809,24.0175696095682,23.005518411425
Exports of goods and services (% of GDP),NE.EXP.GNFS.ZS,World,WLD,18.9960801992937,25.908120633839,30.5098282459677,30.4560994475255,30.0487669682452,29.6877632527411,28.5260469000229,27.6105079622689,28.5012463325539,29.2398467453846,28.5527917297359,26.712062996512
,,,,,,,,,,,,,,,
,,,,,,,,,,,,,,,
,,,,,,,,,,,,,,,
Data from database: World Development Indicators,,,,,,,,,,,,,,,
Last Updated: 10/28/2021,,,,,,,,,,,,,,,
